{
	"_version": "1.1.0",
	"resources": [
		{
			"name": ".library"
		},
		{
			"name": ".supportrc"
		},
		{
			"name": ".theming"
		},
		{
			"name": "AnalyticalColumn-dbg.js",
			"module": "sap/ui/table/AnalyticalColumn.js",
			"isDebug": true,
			"required": [
				"sap/ui/core/Element.js",
				"sap/ui/model/type/Boolean.js",
				"sap/ui/model/type/DateTime.js",
				"sap/ui/model/type/Float.js",
				"sap/ui/model/type/Integer.js",
				"sap/ui/model/type/Time.js",
				"sap/ui/table/AnalyticalColumnMenu.js",
				"sap/ui/table/Column.js",
				"sap/ui/table/TableUtils.js",
				"sap/ui/table/library.js"
			]
		},
		{
			"name": "AnalyticalColumn.control",
			"designtime": true
		},
		{
			"name": "AnalyticalColumn.js",
			"module": "sap/ui/table/AnalyticalColumn.js",
			"required": [
				"sap/ui/core/Element.js",
				"sap/ui/model/type/Boolean.js",
				"sap/ui/model/type/DateTime.js",
				"sap/ui/model/type/Float.js",
				"sap/ui/model/type/Integer.js",
				"sap/ui/model/type/Time.js",
				"sap/ui/table/AnalyticalColumnMenu.js",
				"sap/ui/table/Column.js",
				"sap/ui/table/TableUtils.js",
				"sap/ui/table/library.js"
			]
		},
		{
			"name": "AnalyticalColumnMenu-dbg.js",
			"module": "sap/ui/table/AnalyticalColumnMenu.js",
			"isDebug": true,
			"required": [
				"sap/ui/table/ColumnMenu.js",
				"sap/ui/table/library.js",
				"sap/ui/thirdparty/jquery.js",
				"sap/ui/unified/MenuRenderer.js"
			]
		},
		{
			"name": "AnalyticalColumnMenu.control",
			"designtime": true
		},
		{
			"name": "AnalyticalColumnMenu.js",
			"module": "sap/ui/table/AnalyticalColumnMenu.js",
			"required": [
				"sap/ui/table/ColumnMenu.js",
				"sap/ui/table/library.js",
				"sap/ui/thirdparty/jquery.js",
				"sap/ui/unified/MenuRenderer.js"
			]
		},
		{
			"name": "AnalyticalColumnMenuRenderer-dbg.js",
			"module": "sap/ui/table/AnalyticalColumnMenuRenderer.js",
			"isDebug": true,
			"required": [
				"sap/ui/table/AnalyticalColumnMenu.js"
			]
		},
		{
			"name": "AnalyticalColumnMenuRenderer.js",
			"module": "sap/ui/table/AnalyticalColumnMenuRenderer.js",
			"required": [
				"sap/ui/table/AnalyticalColumnMenu.js"
			]
		},
		{
			"name": "AnalyticalTable-dbg.js",
			"module": "sap/ui/table/AnalyticalTable.js",
			"isDebug": true,
			"required": [
				"sap/base/Log.js",
				"sap/base/assert.js",
				"sap/ui/model/SelectionModel.js",
				"sap/ui/model/Sorter.js",
				"sap/ui/model/analytics/ODataModelAdapter.js",
				"sap/ui/table/AnalyticalColumn.js",
				"sap/ui/table/Table.js",
				"sap/ui/table/TableRenderer.js",
				"sap/ui/table/TableUtils.js",
				"sap/ui/table/TreeTable.js",
				"sap/ui/table/library.js",
				"sap/ui/table/plugins/BindingSelectionPlugin.js",
				"sap/ui/thirdparty/jquery.js",
				"sap/ui/unified/Menu.js",
				"sap/ui/unified/MenuItem.js"
			]
		},
		{
			"name": "AnalyticalTable.control",
			"designtime": true
		},
		{
			"name": "AnalyticalTable.js",
			"module": "sap/ui/table/AnalyticalTable.js",
			"required": [
				"sap/base/Log.js",
				"sap/base/assert.js",
				"sap/ui/model/SelectionModel.js",
				"sap/ui/model/Sorter.js",
				"sap/ui/model/analytics/ODataModelAdapter.js",
				"sap/ui/table/AnalyticalColumn.js",
				"sap/ui/table/Table.js",
				"sap/ui/table/TableRenderer.js",
				"sap/ui/table/TableUtils.js",
				"sap/ui/table/TreeTable.js",
				"sap/ui/table/library.js",
				"sap/ui/table/plugins/BindingSelectionPlugin.js",
				"sap/ui/thirdparty/jquery.js",
				"sap/ui/unified/Menu.js",
				"sap/ui/unified/MenuItem.js"
			]
		},
		{
			"name": "AnalyticalTableRenderer-dbg.js",
			"module": "sap/ui/table/AnalyticalTableRenderer.js",
			"isDebug": true,
			"required": [
				"sap/ui/table/AnalyticalTable.js"
			]
		},
		{
			"name": "AnalyticalTableRenderer.js",
			"module": "sap/ui/table/AnalyticalTableRenderer.js",
			"required": [
				"sap/ui/table/AnalyticalTable.js"
			]
		},
		{
			"name": "Column-dbg.js",
			"module": "sap/ui/table/Column.js",
			"isDebug": true,
			"required": [
				"sap/base/Log.js",
				"sap/base/util/JSTokenizer.js",
				"sap/base/util/ObjectPath.js",
				"sap/ui/core/Element.js",
				"sap/ui/core/Popup.js",
				"sap/ui/core/library.js",
				"sap/ui/model/Filter.js",
				"sap/ui/model/FilterOperator.js",
				"sap/ui/model/FilterType.js",
				"sap/ui/model/Sorter.js",
				"sap/ui/model/Type.js",
				"sap/ui/model/type/String.js",
				"sap/ui/table/ColumnMenu.js",
				"sap/ui/table/TableUtils.js",
				"sap/ui/table/library.js",
				"sap/ui/thirdparty/jquery.js"
			]
		},
		{
			"name": "Column.control",
			"designtime": true
		},
		{
			"name": "Column.js",
			"module": "sap/ui/table/Column.js",
			"required": [
				"sap/base/Log.js",
				"sap/base/util/JSTokenizer.js",
				"sap/base/util/ObjectPath.js",
				"sap/ui/core/Element.js",
				"sap/ui/core/Popup.js",
				"sap/ui/core/library.js",
				"sap/ui/model/Filter.js",
				"sap/ui/model/FilterOperator.js",
				"sap/ui/model/FilterType.js",
				"sap/ui/model/Sorter.js",
				"sap/ui/model/Type.js",
				"sap/ui/model/type/String.js",
				"sap/ui/table/ColumnMenu.js",
				"sap/ui/table/TableUtils.js",
				"sap/ui/table/library.js",
				"sap/ui/thirdparty/jquery.js"
			]
		},
		{
			"name": "ColumnMenu-dbg.js",
			"module": "sap/ui/table/ColumnMenu.js",
			"isDebug": true,
			"required": [
				"sap/base/assert.js",
				"sap/ui/Device.js",
				"sap/ui/table/TableUtils.js",
				"sap/ui/table/library.js",
				"sap/ui/thirdparty/jquery.js",
				"sap/ui/unified/Menu.js",
				"sap/ui/unified/MenuItem.js",
				"sap/ui/unified/MenuRenderer.js",
				"sap/ui/unified/MenuTextFieldItem.js"
			]
		},
		{
			"name": "ColumnMenu.control",
			"designtime": true
		},
		{
			"name": "ColumnMenu.js",
			"module": "sap/ui/table/ColumnMenu.js",
			"required": [
				"sap/base/assert.js",
				"sap/ui/Device.js",
				"sap/ui/table/TableUtils.js",
				"sap/ui/table/library.js",
				"sap/ui/thirdparty/jquery.js",
				"sap/ui/unified/Menu.js",
				"sap/ui/unified/MenuItem.js",
				"sap/ui/unified/MenuRenderer.js",
				"sap/ui/unified/MenuTextFieldItem.js"
			]
		},
		{
			"name": "ColumnMenuRenderer-dbg.js",
			"module": "sap/ui/table/ColumnMenuRenderer.js",
			"isDebug": true,
			"required": [
				"sap/ui/table/ColumnMenu.js"
			]
		},
		{
			"name": "ColumnMenuRenderer.js",
			"module": "sap/ui/table/ColumnMenuRenderer.js",
			"required": [
				"sap/ui/table/ColumnMenu.js"
			]
		},
		{
			"name": "CreationRow-dbg.js",
			"module": "sap/ui/table/CreationRow.js",
			"isDebug": true,
			"required": [
				"sap/m/Button.js",
				"sap/m/OverflowToolbar.js",
				"sap/m/ToolbarSpacer.js",
				"sap/m/library.js",
				"sap/ui/core/Control.js",
				"sap/ui/table/Column.js",
				"sap/ui/table/CreationRowRenderer.js",
				"sap/ui/table/TableUtils.js"
			]
		},
		{
			"name": "CreationRow.js",
			"module": "sap/ui/table/CreationRow.js",
			"required": [
				"sap/m/Button.js",
				"sap/m/OverflowToolbar.js",
				"sap/m/ToolbarSpacer.js",
				"sap/m/library.js",
				"sap/ui/core/Control.js",
				"sap/ui/table/Column.js",
				"sap/ui/table/CreationRowRenderer.js",
				"sap/ui/table/TableUtils.js"
			]
		},
		{
			"name": "CreationRowRenderer-dbg.js",
			"module": "sap/ui/table/CreationRowRenderer.js",
			"isDebug": true,
			"required": [
				"sap/ui/core/Renderer.js",
				"sap/ui/table/TableRenderer.js",
				"sap/ui/table/TableUtils.js"
			]
		},
		{
			"name": "CreationRowRenderer.js",
			"module": "sap/ui/table/CreationRowRenderer.js",
			"required": [
				"sap/ui/core/Renderer.js",
				"sap/ui/table/TableRenderer.js",
				"sap/ui/table/TableUtils.js"
			]
		},
		{
			"name": "NavigationMode.type",
			"designtime": true
		},
		{
			"name": "Row-dbg.js",
			"module": "sap/ui/table/Row.js",
			"isDebug": true,
			"required": [
				"sap/ui/core/Element.js",
				"sap/ui/model/Context.js",
				"sap/ui/table/TableUtils.js",
				"sap/ui/thirdparty/jquery.js"
			]
		},
		{
			"name": "Row.control",
			"designtime": true
		},
		{
			"name": "Row.js",
			"module": "sap/ui/table/Row.js",
			"required": [
				"sap/ui/core/Element.js",
				"sap/ui/model/Context.js",
				"sap/ui/table/TableUtils.js",
				"sap/ui/thirdparty/jquery.js"
			]
		},
		{
			"name": "RowAction-dbg.js",
			"module": "sap/ui/table/RowAction.js",
			"isDebug": true,
			"required": [
				"sap/ui/core/Control.js",
				"sap/ui/core/Icon.js",
				"sap/ui/core/Popup.js",
				"sap/ui/events/KeyCodes.js",
				"sap/ui/table/RowActionRenderer.js",
				"sap/ui/table/TableUtils.js",
				"sap/ui/table/library.js",
				"sap/ui/thirdparty/jquery.js",
				"sap/ui/unified/Menu.js"
			]
		},
		{
			"name": "RowAction.control",
			"designtime": true
		},
		{
			"name": "RowAction.js",
			"module": "sap/ui/table/RowAction.js",
			"required": [
				"sap/ui/core/Control.js",
				"sap/ui/core/Icon.js",
				"sap/ui/core/Popup.js",
				"sap/ui/events/KeyCodes.js",
				"sap/ui/table/RowActionRenderer.js",
				"sap/ui/table/TableUtils.js",
				"sap/ui/table/library.js",
				"sap/ui/thirdparty/jquery.js",
				"sap/ui/unified/Menu.js"
			]
		},
		{
			"name": "RowActionItem-dbg.js",
			"module": "sap/ui/table/RowActionItem.js",
			"isDebug": true,
			"required": [
				"sap/ui/core/Element.js",
				"sap/ui/core/IconPool.js",
				"sap/ui/table/TableUtils.js",
				"sap/ui/table/library.js",
				"sap/ui/unified/MenuItem.js"
			]
		},
		{
			"name": "RowActionItem.control",
			"designtime": true
		},
		{
			"name": "RowActionItem.js",
			"module": "sap/ui/table/RowActionItem.js",
			"required": [
				"sap/ui/core/Element.js",
				"sap/ui/core/IconPool.js",
				"sap/ui/table/TableUtils.js",
				"sap/ui/table/library.js",
				"sap/ui/unified/MenuItem.js"
			]
		},
		{
			"name": "RowActionRenderer-dbg.js",
			"module": "sap/ui/table/RowActionRenderer.js",
			"isDebug": true,
			"required": [
				"sap/ui/table/Row.js"
			]
		},
		{
			"name": "RowActionRenderer.js",
			"module": "sap/ui/table/RowActionRenderer.js",
			"required": [
				"sap/ui/table/Row.js"
			]
		},
		{
			"name": "RowActionType.type",
			"designtime": true
		},
		{
			"name": "RowSettings-dbg.js",
			"module": "sap/ui/table/RowSettings.js",
			"isDebug": true,
			"required": [
				"sap/ui/base/DataType.js",
				"sap/ui/core/Element.js",
				"sap/ui/core/library.js",
				"sap/ui/table/TableUtils.js",
				"sap/ui/table/library.js"
			]
		},
		{
			"name": "RowSettings.control",
			"designtime": true
		},
		{
			"name": "RowSettings.js",
			"module": "sap/ui/table/RowSettings.js",
			"required": [
				"sap/ui/base/DataType.js",
				"sap/ui/core/Element.js",
				"sap/ui/core/library.js",
				"sap/ui/table/TableUtils.js",
				"sap/ui/table/library.js"
			]
		},
		{
			"name": "SelectionBehavior.type",
			"designtime": true
		},
		{
			"name": "SelectionMode.type",
			"designtime": true
		},
		{
			"name": "SortOrder.type",
			"designtime": true
		},
		{
			"name": "Table-dbg.js",
			"module": "sap/ui/table/Table.js",
			"isDebug": true,
			"required": [
				"sap/base/Log.js",
				"sap/ui/Device.js",
				"sap/ui/core/Control.js",
				"sap/ui/core/Element.js",
				"sap/ui/core/IconPool.js",
				"sap/ui/core/util/PasteHelper.js",
				"sap/ui/model/BindingMode.js",
				"sap/ui/model/ChangeReason.js",
				"sap/ui/model/Filter.js",
				"sap/ui/model/Sorter.js",
				"sap/ui/table/Column.js",
				"sap/ui/table/Row.js",
				"sap/ui/table/TableAccExtension.js",
				"sap/ui/table/TableDragAndDropExtension.js",
				"sap/ui/table/TableExtension.js",
				"sap/ui/table/TableKeyboardExtension.js",
				"sap/ui/table/TablePointerExtension.js",
				"sap/ui/table/TableRenderer.js",
				"sap/ui/table/TableScrollExtension.js",
				"sap/ui/table/TableUtils.js",
				"sap/ui/table/library.js",
				"sap/ui/table/plugins/SelectionModelPlugin.js",
				"sap/ui/thirdparty/jquery.js"
			],
			"condRequired": [
				"sap/ui/core/util/Export.js",
				"sap/ui/core/util/ExportTypeCSV.js"
			]
		},
		{
			"name": "Table.control",
			"designtime": true
		},
		{
			"name": "Table.js",
			"module": "sap/ui/table/Table.js",
			"required": [
				"sap/base/Log.js",
				"sap/ui/Device.js",
				"sap/ui/core/Control.js",
				"sap/ui/core/Element.js",
				"sap/ui/core/IconPool.js",
				"sap/ui/core/util/PasteHelper.js",
				"sap/ui/model/BindingMode.js",
				"sap/ui/model/ChangeReason.js",
				"sap/ui/model/Filter.js",
				"sap/ui/model/Sorter.js",
				"sap/ui/table/Column.js",
				"sap/ui/table/Row.js",
				"sap/ui/table/TableAccExtension.js",
				"sap/ui/table/TableDragAndDropExtension.js",
				"sap/ui/table/TableExtension.js",
				"sap/ui/table/TableKeyboardExtension.js",
				"sap/ui/table/TablePointerExtension.js",
				"sap/ui/table/TableRenderer.js",
				"sap/ui/table/TableScrollExtension.js",
				"sap/ui/table/TableUtils.js",
				"sap/ui/table/library.js",
				"sap/ui/table/plugins/SelectionModelPlugin.js",
				"sap/ui/thirdparty/jquery.js"
			],
			"condRequired": [
				"sap/ui/core/util/Export.js",
				"sap/ui/core/util/ExportTypeCSV.js"
			]
		},
		{
			"name": "TableAccExtension-dbg.js",
			"module": "sap/ui/table/TableAccExtension.js",
			"isDebug": true,
			"required": [
				"sap/ui/Device.js",
				"sap/ui/core/Control.js",
				"sap/ui/table/TableAccRenderExtension.js",
				"sap/ui/table/TableExtension.js",
				"sap/ui/table/TableUtils.js",
				"sap/ui/table/library.js",
				"sap/ui/thirdparty/jquery.js"
			]
		},
		{
			"name": "TableAccExtension.js",
			"module": "sap/ui/table/TableAccExtension.js",
			"required": [
				"sap/ui/Device.js",
				"sap/ui/core/Control.js",
				"sap/ui/table/TableAccRenderExtension.js",
				"sap/ui/table/TableExtension.js",
				"sap/ui/table/TableUtils.js",
				"sap/ui/table/library.js",
				"sap/ui/thirdparty/jquery.js"
			]
		},
		{
			"name": "TableAccRenderExtension-dbg.js",
			"module": "sap/ui/table/TableAccRenderExtension.js",
			"isDebug": true,
			"required": [
				"sap/ui/table/TableExtension.js",
				"sap/ui/table/TableUtils.js",
				"sap/ui/table/library.js"
			]
		},
		{
			"name": "TableAccRenderExtension.js",
			"module": "sap/ui/table/TableAccRenderExtension.js",
			"required": [
				"sap/ui/table/TableExtension.js",
				"sap/ui/table/TableUtils.js",
				"sap/ui/table/library.js"
			]
		},
		{
			"name": "TableBindingUtils-dbg.js",
			"module": "sap/ui/table/TableBindingUtils.js",
			"isDebug": true
		},
		{
			"name": "TableBindingUtils.js",
			"module": "sap/ui/table/TableBindingUtils.js"
		},
		{
			"name": "TableColumnUtils-dbg.js",
			"module": "sap/ui/table/TableColumnUtils.js",
			"isDebug": true,
			"required": [
				"sap/base/Log.js",
				"sap/ui/Device.js",
				"sap/ui/table/library.js"
			]
		},
		{
			"name": "TableColumnUtils.js",
			"module": "sap/ui/table/TableColumnUtils.js",
			"required": [
				"sap/base/Log.js",
				"sap/ui/Device.js",
				"sap/ui/table/library.js"
			]
		},
		{
			"name": "TableDragAndDropExtension-dbg.js",
			"module": "sap/ui/table/TableDragAndDropExtension.js",
			"isDebug": true,
			"required": [
				"sap/ui/core/library.js",
				"sap/ui/table/TableExtension.js",
				"sap/ui/table/TableUtils.js"
			]
		},
		{
			"name": "TableDragAndDropExtension.js",
			"module": "sap/ui/table/TableDragAndDropExtension.js",
			"required": [
				"sap/ui/core/library.js",
				"sap/ui/table/TableExtension.js",
				"sap/ui/table/TableUtils.js"
			]
		},
		{
			"name": "TableExtension-dbg.js",
			"module": "sap/ui/table/TableExtension.js",
			"isDebug": true,
			"required": [
				"sap/ui/base/Object.js",
				"sap/ui/table/TableUtils.js"
			]
		},
		{
			"name": "TableExtension.js",
			"module": "sap/ui/table/TableExtension.js",
			"required": [
				"sap/ui/base/Object.js",
				"sap/ui/table/TableUtils.js"
			]
		},
		{
			"name": "TableGrouping-dbg.js",
			"module": "sap/ui/table/TableGrouping.js",
			"isDebug": true,
			"required": [
				"sap/ui/Device.js",
				"sap/ui/core/Element.js",
				"sap/ui/model/Sorter.js",
				"sap/ui/table/library.js",
				"sap/ui/thirdparty/jquery.js"
			]
		},
		{
			"name": "TableGrouping.js",
			"module": "sap/ui/table/TableGrouping.js",
			"required": [
				"sap/ui/Device.js",
				"sap/ui/core/Element.js",
				"sap/ui/model/Sorter.js",
				"sap/ui/table/library.js",
				"sap/ui/thirdparty/jquery.js"
			]
		},
		{
			"name": "TableKeyboardDelegate2-dbg.js",
			"module": "sap/ui/table/TableKeyboardDelegate2.js",
			"isDebug": true,
			"required": [
				"sap/ui/Device.js",
				"sap/ui/base/Object.js",
				"sap/ui/events/KeyCodes.js",
				"sap/ui/table/TableUtils.js",
				"sap/ui/table/library.js",
				"sap/ui/thirdparty/jquery.js"
			]
		},
		{
			"name": "TableKeyboardDelegate2.js",
			"module": "sap/ui/table/TableKeyboardDelegate2.js",
			"required": [
				"sap/ui/Device.js",
				"sap/ui/base/Object.js",
				"sap/ui/events/KeyCodes.js",
				"sap/ui/table/TableUtils.js",
				"sap/ui/table/library.js",
				"sap/ui/thirdparty/jquery.js"
			]
		},
		{
			"name": "TableKeyboardExtension-dbg.js",
			"module": "sap/ui/table/TableKeyboardExtension.js",
			"isDebug": true,
			"required": [
				"sap/ui/Device.js",
				"sap/ui/core/delegate/ItemNavigation.js",
				"sap/ui/dom/containsOrEquals.js",
				"sap/ui/table/TableExtension.js",
				"sap/ui/table/TableKeyboardDelegate2.js",
				"sap/ui/table/TableUtils.js",
				"sap/ui/thirdparty/jquery.js"
			]
		},
		{
			"name": "TableKeyboardExtension.js",
			"module": "sap/ui/table/TableKeyboardExtension.js",
			"required": [
				"sap/ui/Device.js",
				"sap/ui/core/delegate/ItemNavigation.js",
				"sap/ui/dom/containsOrEquals.js",
				"sap/ui/table/TableExtension.js",
				"sap/ui/table/TableKeyboardDelegate2.js",
				"sap/ui/table/TableUtils.js",
				"sap/ui/thirdparty/jquery.js"
			]
		},
		{
			"name": "TableMenuUtils-dbg.js",
			"module": "sap/ui/table/TableMenuUtils.js",
			"isDebug": true,
			"required": [
				"sap/ui/Device.js",
				"sap/ui/core/Popup.js",
				"sap/ui/thirdparty/jquery.js",
				"sap/ui/unified/Menu.js",
				"sap/ui/unified/MenuItem.js"
			]
		},
		{
			"name": "TableMenuUtils.js",
			"module": "sap/ui/table/TableMenuUtils.js",
			"required": [
				"sap/ui/Device.js",
				"sap/ui/core/Popup.js",
				"sap/ui/thirdparty/jquery.js",
				"sap/ui/unified/Menu.js",
				"sap/ui/unified/MenuItem.js"
			]
		},
		{
			"name": "TablePersoController-dbg.js",
			"module": "sap/ui/table/TablePersoController.js",
			"isDebug": true,
			"required": [
				"sap/base/Log.js",
				"sap/ui/base/ManagedObject.js",
				"sap/ui/core/syncStyleClass.js",
				"sap/ui/thirdparty/jquery.js"
			]
		},
		{
			"name": "TablePersoController.js",
			"module": "sap/ui/table/TablePersoController.js",
			"required": [
				"sap/base/Log.js",
				"sap/ui/base/ManagedObject.js",
				"sap/ui/core/syncStyleClass.js",
				"sap/ui/thirdparty/jquery.js"
			]
		},
		{
			"name": "TablePointerExtension-dbg.js",
			"module": "sap/ui/table/TablePointerExtension.js",
			"isDebug": true,
			"required": [
				"sap/base/Log.js",
				"sap/ui/Device.js",
				"sap/ui/core/Popup.js",
				"sap/ui/dom/jquery/control.js",
				"sap/ui/dom/jquery/scrollLeftRTL.js",
				"sap/ui/table/TableExtension.js",
				"sap/ui/table/TableUtils.js",
				"sap/ui/table/library.js",
				"sap/ui/thirdparty/jquery.js"
			]
		},
		{
			"name": "TablePointerExtension.js",
			"module": "sap/ui/table/TablePointerExtension.js",
			"required": [
				"sap/base/Log.js",
				"sap/ui/Device.js",
				"sap/ui/core/Popup.js",
				"sap/ui/dom/jquery/control.js",
				"sap/ui/dom/jquery/scrollLeftRTL.js",
				"sap/ui/table/TableExtension.js",
				"sap/ui/table/TableUtils.js",
				"sap/ui/table/library.js",
				"sap/ui/thirdparty/jquery.js"
			]
		},
		{
			"name": "TableRenderer-dbg.js",
			"module": "sap/ui/table/TableRenderer.js",
			"isDebug": true,
			"required": [
				"sap/base/Log.js",
				"sap/ui/Device.js",
				"sap/ui/core/Control.js",
				"sap/ui/core/IconPool.js",
				"sap/ui/core/Renderer.js",
				"sap/ui/core/theming/Parameters.js",
				"sap/ui/table/Column.js",
				"sap/ui/table/TableExtension.js",
				"sap/ui/table/TableUtils.js",
				"sap/ui/table/library.js"
			]
		},
		{
			"name": "TableRenderer.js",
			"module": "sap/ui/table/TableRenderer.js",
			"required": [
				"sap/base/Log.js",
				"sap/ui/Device.js",
				"sap/ui/core/Control.js",
				"sap/ui/core/IconPool.js",
				"sap/ui/core/Renderer.js",
				"sap/ui/core/theming/Parameters.js",
				"sap/ui/table/Column.js",
				"sap/ui/table/TableExtension.js",
				"sap/ui/table/TableUtils.js",
				"sap/ui/table/library.js"
			]
		},
		{
			"name": "TableRendererUtils-dbg.js",
			"module": "sap/ui/table/TableRendererUtils.js",
			"isDebug": true,
			"required": [
				"sap/ui/core/Control.js"
			]
		},
		{
			"name": "TableRendererUtils.js",
			"module": "sap/ui/table/TableRendererUtils.js",
			"required": [
				"sap/ui/core/Control.js"
			]
		},
		{
			"name": "TableScrollExtension-dbg.js",
			"module": "sap/ui/table/TableScrollExtension.js",
			"isDebug": true,
			"required": [
				"sap/base/Log.js",
				"sap/ui/Device.js",
				"sap/ui/performance/trace/Interaction.js",
				"sap/ui/table/TableExtension.js",
				"sap/ui/table/TableUtils.js",
				"sap/ui/table/library.js",
				"sap/ui/thirdparty/jquery.js"
			]
		},
		{
			"name": "TableScrollExtension.js",
			"module": "sap/ui/table/TableScrollExtension.js",
			"required": [
				"sap/base/Log.js",
				"sap/ui/Device.js",
				"sap/ui/performance/trace/Interaction.js",
				"sap/ui/table/TableExtension.js",
				"sap/ui/table/TableUtils.js",
				"sap/ui/table/library.js",
				"sap/ui/thirdparty/jquery.js"
			]
		},
		{
			"name": "TableSyncExtension-dbg.js",
			"module": "sap/ui/table/TableSyncExtension.js",
			"isDebug": true,
			"required": [
				"sap/base/Log.js",
				"sap/ui/table/Table.js",
				"sap/ui/table/TableExtension.js",
				"sap/ui/table/TableUtils.js",
				"sap/ui/table/library.js"
			]
		},
		{
			"name": "TableSyncExtension.js",
			"module": "sap/ui/table/TableSyncExtension.js",
			"required": [
				"sap/base/Log.js",
				"sap/ui/table/Table.js",
				"sap/ui/table/TableExtension.js",
				"sap/ui/table/TableUtils.js",
				"sap/ui/table/library.js"
			]
		},
		{
			"name": "TableUtils-dbg.js",
			"module": "sap/ui/table/TableUtils.js",
			"isDebug": true,
			"required": [
				"sap/base/Log.js",
				"sap/ui/base/Object.js",
				"sap/ui/core/Control.js",
				"sap/ui/core/ResizeHandler.js",
				"sap/ui/core/library.js",
				"sap/ui/core/theming/Parameters.js",
				"sap/ui/model/ChangeReason.js",
				"sap/ui/table/TableBindingUtils.js",
				"sap/ui/table/TableColumnUtils.js",
				"sap/ui/table/TableGrouping.js",
				"sap/ui/table/TableMenuUtils.js",
				"sap/ui/table/library.js",
				"sap/ui/thirdparty/jquery.js"
			]
		},
		{
			"name": "TableUtils.js",
			"module": "sap/ui/table/TableUtils.js",
			"required": [
				"sap/base/Log.js",
				"sap/ui/base/Object.js",
				"sap/ui/core/Control.js",
				"sap/ui/core/ResizeHandler.js",
				"sap/ui/core/library.js",
				"sap/ui/core/theming/Parameters.js",
				"sap/ui/model/ChangeReason.js",
				"sap/ui/table/TableBindingUtils.js",
				"sap/ui/table/TableColumnUtils.js",
				"sap/ui/table/TableGrouping.js",
				"sap/ui/table/TableMenuUtils.js",
				"sap/ui/table/library.js",
				"sap/ui/thirdparty/jquery.js"
			]
		},
		{
			"name": "TreeTable-dbg.js",
			"module": "sap/ui/table/TreeTable.js",
			"isDebug": true,
			"required": [
				"sap/base/Log.js",
				"sap/base/assert.js",
				"sap/ui/core/Element.js",
				"sap/ui/model/ClientTreeBindingAdapter.js",
				"sap/ui/model/TreeBindingCompatibilityAdapter.js",
				"sap/ui/table/Table.js",
				"sap/ui/table/TableRenderer.js",
				"sap/ui/table/TableUtils.js",
				"sap/ui/table/library.js",
				"sap/ui/table/plugins/BindingSelectionPlugin.js"
			]
		},
		{
			"name": "TreeTable.control",
			"designtime": true
		},
		{
			"name": "TreeTable.js",
			"module": "sap/ui/table/TreeTable.js",
			"required": [
				"sap/base/Log.js",
				"sap/base/assert.js",
				"sap/ui/core/Element.js",
				"sap/ui/model/ClientTreeBindingAdapter.js",
				"sap/ui/model/TreeBindingCompatibilityAdapter.js",
				"sap/ui/table/Table.js",
				"sap/ui/table/TableRenderer.js",
				"sap/ui/table/TableUtils.js",
				"sap/ui/table/library.js",
				"sap/ui/table/plugins/BindingSelectionPlugin.js"
			]
		},
		{
			"name": "TreeTableRenderer-dbg.js",
			"module": "sap/ui/table/TreeTableRenderer.js",
			"isDebug": true,
			"required": [
				"sap/ui/table/TreeTable.js"
			]
		},
		{
			"name": "TreeTableRenderer.js",
			"module": "sap/ui/table/TreeTableRenderer.js",
			"required": [
				"sap/ui/table/TreeTable.js"
			]
		},
		{
			"name": "VisibleRowCountMode.type",
			"designtime": true
		},
		{
			"name": "designtime/AnalyticalTable.designtime-dbg.js",
			"module": "sap/ui/table/designtime/AnalyticalTable.designtime.js",
			"isDebug": true,
			"designtime": true
		},
		{
			"name": "designtime/AnalyticalTable.designtime.js",
			"module": "sap/ui/table/designtime/AnalyticalTable.designtime.js",
			"designtime": true
		},
		{
			"name": "designtime/Table.designtime-dbg.js",
			"module": "sap/ui/table/designtime/Table.designtime.js",
			"isDebug": true,
			"designtime": true,
			"required": [
				"sap/ui/table/TableUtils.js"
			]
		},
		{
			"name": "designtime/Table.designtime.js",
			"module": "sap/ui/table/designtime/Table.designtime.js",
			"designtime": true,
			"required": [
				"sap/ui/table/TableUtils.js"
			]
		},
		{
			"name": "designtime/library-preload.designtime.js",
			"module": "sap/ui/table/designtime/library-preload.designtime.js",
			"merged": true,
			"designtime": true,
			"required": [
				"sap/ui/table/TableUtils.js"
			],
			"included": [
				"sap/ui/table/designtime/AnalyticalTable.designtime.js",
				"sap/ui/table/designtime/Table.designtime.js",
				"sap/ui/table/designtime/library.designtime.js"
			]
		},
		{
			"name": "designtime/library-preload.designtime.js.map",
			"isDebug": true,
			"designtime": true
		},
		{
			"name": "designtime/library.designtime-dbg.js",
			"module": "sap/ui/table/designtime/library.designtime.js",
			"isDebug": true,
			"designtime": true
		},
		{
			"name": "designtime/library.designtime.js",
			"module": "sap/ui/table/designtime/library.designtime.js",
			"designtime": true
		},
		{
			"name": "designtime/messagebundle.properties",
			"module": "sap/ui/table/designtime/messagebundle.properties",
			"designtime": true
		},
		{
			"name": "library-dbg.js",
			"module": "sap/ui/table/library.js",
			"isDebug": true,
			"required": [
				"sap/ui/core/Core.js",
				"sap/ui/core/library.js",
				"sap/ui/model/TreeAutoExpandMode.js",
				"sap/ui/unified/library.js"
			]
		},
		{
			"name": "library-h2-preload-dbg.js",
			"module": "sap/ui/table/library-h2-preload.js",
			"isDebug": true,
			"merged": true,
			"required": [
				"sap/base/Log.js",
				"sap/base/assert.js",
				"sap/base/util/JSTokenizer.js",
				"sap/base/util/ObjectPath.js",
				"sap/m/Button.js",
				"sap/m/OverflowToolbar.js",
				"sap/m/ToolbarSpacer.js",
				"sap/m/library.js",
				"sap/ui/Device.js",
				"sap/ui/base/DataType.js",
				"sap/ui/base/ManagedObject.js",
				"sap/ui/base/Object.js",
				"sap/ui/core/Control.js",
				"sap/ui/core/Core.js",
				"sap/ui/core/Element.js",
				"sap/ui/core/Icon.js",
				"sap/ui/core/IconPool.js",
				"sap/ui/core/Popup.js",
				"sap/ui/core/Renderer.js",
				"sap/ui/core/ResizeHandler.js",
				"sap/ui/core/delegate/ItemNavigation.js",
				"sap/ui/core/library.js",
				"sap/ui/core/syncStyleClass.js",
				"sap/ui/core/theming/Parameters.js",
				"sap/ui/core/util/PasteHelper.js",
				"sap/ui/dom/containsOrEquals.js",
				"sap/ui/dom/jquery/control.js",
				"sap/ui/dom/jquery/scrollLeftRTL.js",
				"sap/ui/events/KeyCodes.js",
				"sap/ui/model/BindingMode.js",
				"sap/ui/model/ChangeReason.js",
				"sap/ui/model/ClientTreeBindingAdapter.js",
				"sap/ui/model/Context.js",
				"sap/ui/model/Filter.js",
				"sap/ui/model/FilterOperator.js",
				"sap/ui/model/FilterType.js",
				"sap/ui/model/SelectionModel.js",
				"sap/ui/model/Sorter.js",
				"sap/ui/model/TreeAutoExpandMode.js",
				"sap/ui/model/TreeBindingCompatibilityAdapter.js",
				"sap/ui/model/Type.js",
				"sap/ui/model/analytics/ODataModelAdapter.js",
				"sap/ui/model/type/Boolean.js",
				"sap/ui/model/type/DateTime.js",
				"sap/ui/model/type/Float.js",
				"sap/ui/model/type/Integer.js",
				"sap/ui/model/type/String.js",
				"sap/ui/model/type/Time.js",
				"sap/ui/performance/trace/Interaction.js",
				"sap/ui/support/library.js",
				"sap/ui/support/supportRules/RuleSet.js",
				"sap/ui/thirdparty/jquery.js",
				"sap/ui/unified/Menu.js",
				"sap/ui/unified/MenuItem.js",
				"sap/ui/unified/MenuRenderer.js",
				"sap/ui/unified/MenuTextFieldItem.js",
				"sap/ui/unified/library.js"
			],
			"condRequired": [
				"sap/ui/core/util/Export.js",
				"sap/ui/core/util/ExportTypeCSV.js"
			],
			"included": [
				"sap/ui/table/library.js",
				"sap/ui/table/manifest.json",
				"sap/ui/table/AnalyticalColumn.js",
				"sap/ui/table/AnalyticalColumnMenu.js",
				"sap/ui/table/AnalyticalColumnMenuRenderer.js",
				"sap/ui/table/AnalyticalTable.js",
				"sap/ui/table/AnalyticalTableRenderer.js",
				"sap/ui/table/Column.js",
				"sap/ui/table/ColumnMenu.js",
				"sap/ui/table/ColumnMenuRenderer.js",
				"sap/ui/table/CreationRow.js",
				"sap/ui/table/CreationRowRenderer.js",
				"sap/ui/table/Row.js",
				"sap/ui/table/RowAction.js",
				"sap/ui/table/RowActionItem.js",
				"sap/ui/table/RowActionRenderer.js",
				"sap/ui/table/RowSettings.js",
				"sap/ui/table/Table.js",
				"sap/ui/table/TableAccExtension.js",
				"sap/ui/table/TableAccRenderExtension.js",
				"sap/ui/table/TableBindingUtils.js",
				"sap/ui/table/TableColumnUtils.js",
				"sap/ui/table/TableDragAndDropExtension.js",
				"sap/ui/table/TableExtension.js",
				"sap/ui/table/TableGrouping.js",
				"sap/ui/table/TableKeyboardDelegate2.js",
				"sap/ui/table/TableKeyboardExtension.js",
				"sap/ui/table/TableMenuUtils.js",
				"sap/ui/table/TablePersoController.js",
				"sap/ui/table/TablePointerExtension.js",
				"sap/ui/table/TableRenderer.js",
				"sap/ui/table/TableRendererUtils.js",
				"sap/ui/table/TableScrollExtension.js",
				"sap/ui/table/TableSyncExtension.js",
				"sap/ui/table/TableUtils.js",
				"sap/ui/table/TreeTable.js",
				"sap/ui/table/TreeTableRenderer.js",
				"sap/ui/table/designtime/AnalyticalTable.designtime.js",
				"sap/ui/table/designtime/Table.designtime.js",
				"sap/ui/table/designtime/library.designtime.js",
				"sap/ui/table/library.support.js",
				"sap/ui/table/plugins/BindingSelectionPlugin.js",
				"sap/ui/table/plugins/MultiSelectionPlugin.js",
				"sap/ui/table/plugins/SelectionModelPlugin.js",
				"sap/ui/table/plugins/SelectionPlugin.js",
				"sap/ui/table/rules/TableHelper.support.js"
			]
		},
		{
			"name": "library-h2-preload.js",
			"module": "sap/ui/table/library-h2-preload.js",
			"merged": true,
			"required": [
				"sap/base/Log.js",
				"sap/base/assert.js",
				"sap/base/util/JSTokenizer.js",
				"sap/base/util/ObjectPath.js",
				"sap/m/Button.js",
				"sap/m/OverflowToolbar.js",
				"sap/m/ToolbarSpacer.js",
				"sap/m/library.js",
				"sap/ui/Device.js",
				"sap/ui/base/DataType.js",
				"sap/ui/base/ManagedObject.js",
				"sap/ui/base/Object.js",
				"sap/ui/core/Control.js",
				"sap/ui/core/Core.js",
				"sap/ui/core/Element.js",
				"sap/ui/core/Icon.js",
				"sap/ui/core/IconPool.js",
				"sap/ui/core/Popup.js",
				"sap/ui/core/Renderer.js",
				"sap/ui/core/ResizeHandler.js",
				"sap/ui/core/delegate/ItemNavigation.js",
				"sap/ui/core/library.js",
				"sap/ui/core/syncStyleClass.js",
				"sap/ui/core/theming/Parameters.js",
				"sap/ui/core/util/PasteHelper.js",
				"sap/ui/dom/containsOrEquals.js",
				"sap/ui/dom/jquery/control.js",
				"sap/ui/dom/jquery/scrollLeftRTL.js",
				"sap/ui/events/KeyCodes.js",
				"sap/ui/model/BindingMode.js",
				"sap/ui/model/ChangeReason.js",
				"sap/ui/model/ClientTreeBindingAdapter.js",
				"sap/ui/model/Context.js",
				"sap/ui/model/Filter.js",
				"sap/ui/model/FilterOperator.js",
				"sap/ui/model/FilterType.js",
				"sap/ui/model/SelectionModel.js",
				"sap/ui/model/Sorter.js",
				"sap/ui/model/TreeAutoExpandMode.js",
				"sap/ui/model/TreeBindingCompatibilityAdapter.js",
				"sap/ui/model/Type.js",
				"sap/ui/model/analytics/ODataModelAdapter.js",
				"sap/ui/model/type/Boolean.js",
				"sap/ui/model/type/DateTime.js",
				"sap/ui/model/type/Float.js",
				"sap/ui/model/type/Integer.js",
				"sap/ui/model/type/String.js",
				"sap/ui/model/type/Time.js",
				"sap/ui/performance/trace/Interaction.js",
				"sap/ui/support/library.js",
				"sap/ui/support/supportRules/RuleSet.js",
				"sap/ui/thirdparty/jquery.js",
				"sap/ui/unified/Menu.js",
				"sap/ui/unified/MenuItem.js",
				"sap/ui/unified/MenuRenderer.js",
				"sap/ui/unified/MenuTextFieldItem.js",
				"sap/ui/unified/library.js"
			],
			"condRequired": [
				"sap/ui/core/util/Export.js",
				"sap/ui/core/util/ExportTypeCSV.js"
			],
			"included": [
				"sap/ui/table/library.js",
				"sap/ui/table/manifest.json",
				"sap/ui/table/AnalyticalColumn.js",
				"sap/ui/table/AnalyticalColumnMenu.js",
				"sap/ui/table/AnalyticalColumnMenuRenderer.js",
				"sap/ui/table/AnalyticalTable.js",
				"sap/ui/table/AnalyticalTableRenderer.js",
				"sap/ui/table/Column.js",
				"sap/ui/table/ColumnMenu.js",
				"sap/ui/table/ColumnMenuRenderer.js",
				"sap/ui/table/CreationRow.js",
				"sap/ui/table/CreationRowRenderer.js",
				"sap/ui/table/Row.js",
				"sap/ui/table/RowAction.js",
				"sap/ui/table/RowActionItem.js",
				"sap/ui/table/RowActionRenderer.js",
				"sap/ui/table/RowSettings.js",
				"sap/ui/table/Table.js",
				"sap/ui/table/TableAccExtension.js",
				"sap/ui/table/TableAccRenderExtension.js",
				"sap/ui/table/TableBindingUtils.js",
				"sap/ui/table/TableColumnUtils.js",
				"sap/ui/table/TableDragAndDropExtension.js",
				"sap/ui/table/TableExtension.js",
				"sap/ui/table/TableGrouping.js",
				"sap/ui/table/TableKeyboardDelegate2.js",
				"sap/ui/table/TableKeyboardExtension.js",
				"sap/ui/table/TableMenuUtils.js",
				"sap/ui/table/TablePersoController.js",
				"sap/ui/table/TablePointerExtension.js",
				"sap/ui/table/TableRenderer.js",
				"sap/ui/table/TableRendererUtils.js",
				"sap/ui/table/TableScrollExtension.js",
				"sap/ui/table/TableSyncExtension.js",
				"sap/ui/table/TableUtils.js",
				"sap/ui/table/TreeTable.js",
				"sap/ui/table/TreeTableRenderer.js",
				"sap/ui/table/designtime/AnalyticalTable.designtime.js",
				"sap/ui/table/designtime/Table.designtime.js",
				"sap/ui/table/designtime/library.designtime.js",
				"sap/ui/table/library.support.js",
				"sap/ui/table/plugins/BindingSelectionPlugin.js",
				"sap/ui/table/plugins/MultiSelectionPlugin.js",
				"sap/ui/table/plugins/SelectionModelPlugin.js",
				"sap/ui/table/plugins/SelectionPlugin.js",
				"sap/ui/table/rules/TableHelper.support.js"
			]
		},
		{
			"name": "library-h2-preload.js.map",
			"isDebug": true
		},
		{
			"name": "library-preload.js",
			"module": "sap/ui/table/library-preload.js",
			"merged": true,
			"required": [
				"sap/base/Log.js",
				"sap/base/assert.js",
				"sap/base/util/JSTokenizer.js",
				"sap/base/util/ObjectPath.js",
				"sap/m/Button.js",
				"sap/m/OverflowToolbar.js",
				"sap/m/ToolbarSpacer.js",
				"sap/m/library.js",
				"sap/ui/Device.js",
				"sap/ui/base/DataType.js",
				"sap/ui/base/ManagedObject.js",
				"sap/ui/base/Object.js",
				"sap/ui/core/Control.js",
				"sap/ui/core/Core.js",
				"sap/ui/core/Element.js",
				"sap/ui/core/Icon.js",
				"sap/ui/core/IconPool.js",
				"sap/ui/core/Popup.js",
				"sap/ui/core/Renderer.js",
				"sap/ui/core/ResizeHandler.js",
				"sap/ui/core/delegate/ItemNavigation.js",
				"sap/ui/core/library.js",
				"sap/ui/core/syncStyleClass.js",
				"sap/ui/core/theming/Parameters.js",
				"sap/ui/core/util/PasteHelper.js",
				"sap/ui/dom/containsOrEquals.js",
				"sap/ui/dom/jquery/control.js",
				"sap/ui/dom/jquery/scrollLeftRTL.js",
				"sap/ui/events/KeyCodes.js",
				"sap/ui/model/BindingMode.js",
				"sap/ui/model/ChangeReason.js",
				"sap/ui/model/ClientTreeBindingAdapter.js",
				"sap/ui/model/Context.js",
				"sap/ui/model/Filter.js",
				"sap/ui/model/FilterOperator.js",
				"sap/ui/model/FilterType.js",
				"sap/ui/model/SelectionModel.js",
				"sap/ui/model/Sorter.js",
				"sap/ui/model/TreeAutoExpandMode.js",
				"sap/ui/model/TreeBindingCompatibilityAdapter.js",
				"sap/ui/model/Type.js",
				"sap/ui/model/analytics/ODataModelAdapter.js",
				"sap/ui/model/type/Boolean.js",
				"sap/ui/model/type/DateTime.js",
				"sap/ui/model/type/Float.js",
				"sap/ui/model/type/Integer.js",
				"sap/ui/model/type/String.js",
				"sap/ui/model/type/Time.js",
				"sap/ui/performance/trace/Interaction.js",
				"sap/ui/thirdparty/jquery.js",
				"sap/ui/unified/Menu.js",
				"sap/ui/unified/MenuItem.js",
				"sap/ui/unified/MenuRenderer.js",
				"sap/ui/unified/MenuTextFieldItem.js",
				"sap/ui/unified/library.js"
			],
			"condRequired": [
				"sap/ui/core/util/Export.js",
				"sap/ui/core/util/ExportTypeCSV.js"
			],
			"included": [
				"sap/ui/table/AnalyticalColumn.js",
				"sap/ui/table/AnalyticalColumnMenu.js",
				"sap/ui/table/AnalyticalColumnMenuRenderer.js",
				"sap/ui/table/AnalyticalTable.js",
				"sap/ui/table/AnalyticalTableRenderer.js",
				"sap/ui/table/Column.js",
				"sap/ui/table/ColumnMenu.js",
				"sap/ui/table/ColumnMenuRenderer.js",
				"sap/ui/table/CreationRow.js",
				"sap/ui/table/CreationRowRenderer.js",
				"sap/ui/table/Row.js",
				"sap/ui/table/RowAction.js",
				"sap/ui/table/RowActionItem.js",
				"sap/ui/table/RowActionRenderer.js",
				"sap/ui/table/RowSettings.js",
				"sap/ui/table/Table.js",
				"sap/ui/table/TableAccExtension.js",
				"sap/ui/table/TableAccRenderExtension.js",
				"sap/ui/table/TableBindingUtils.js",
				"sap/ui/table/TableColumnUtils.js",
				"sap/ui/table/TableDragAndDropExtension.js",
				"sap/ui/table/TableExtension.js",
				"sap/ui/table/TableGrouping.js",
				"sap/ui/table/TableKeyboardDelegate2.js",
				"sap/ui/table/TableKeyboardExtension.js",
				"sap/ui/table/TableMenuUtils.js",
				"sap/ui/table/TablePersoController.js",
				"sap/ui/table/TablePointerExtension.js",
				"sap/ui/table/TableRenderer.js",
				"sap/ui/table/TableRendererUtils.js",
				"sap/ui/table/TableScrollExtension.js",
				"sap/ui/table/TableSyncExtension.js",
				"sap/ui/table/TableUtils.js",
				"sap/ui/table/TreeTable.js",
				"sap/ui/table/TreeTableRenderer.js",
				"sap/ui/table/library.js",
				"sap/ui/table/manifest.json",
				"sap/ui/table/plugins/BindingSelectionPlugin.js",
				"sap/ui/table/plugins/MultiSelectionPlugin.js",
				"sap/ui/table/plugins/SelectionModelPlugin.js",
				"sap/ui/table/plugins/SelectionPlugin.js"
			]
		},
		{
			"name": "library-preload.js.map",
			"isDebug": true
		},
		{
			"name": "library-preload.json",
			"module": "sap/ui/table/library-preload.json",
			"merged": true,
			"required": [
				"sap/base/Log.js",
				"sap/base/assert.js",
				"sap/base/util/JSTokenizer.js",
				"sap/base/util/ObjectPath.js",
				"sap/m/Button.js",
				"sap/m/OverflowToolbar.js",
				"sap/m/ToolbarSpacer.js",
				"sap/m/library.js",
				"sap/ui/Device.js",
				"sap/ui/base/DataType.js",
				"sap/ui/base/ManagedObject.js",
				"sap/ui/base/Object.js",
				"sap/ui/core/Control.js",
				"sap/ui/core/Core.js",
				"sap/ui/core/Element.js",
				"sap/ui/core/Icon.js",
				"sap/ui/core/IconPool.js",
				"sap/ui/core/Popup.js",
				"sap/ui/core/Renderer.js",
				"sap/ui/core/ResizeHandler.js",
				"sap/ui/core/delegate/ItemNavigation.js",
				"sap/ui/core/library-preload.json",
				"sap/ui/core/library.js",
				"sap/ui/core/syncStyleClass.js",
				"sap/ui/core/theming/Parameters.js",
				"sap/ui/core/util/PasteHelper.js",
				"sap/ui/dom/containsOrEquals.js",
				"sap/ui/dom/jquery/control.js",
				"sap/ui/dom/jquery/scrollLeftRTL.js",
				"sap/ui/events/KeyCodes.js",
				"sap/ui/model/BindingMode.js",
				"sap/ui/model/ChangeReason.js",
				"sap/ui/model/ClientTreeBindingAdapter.js",
				"sap/ui/model/Context.js",
				"sap/ui/model/Filter.js",
				"sap/ui/model/FilterOperator.js",
				"sap/ui/model/FilterType.js",
				"sap/ui/model/SelectionModel.js",
				"sap/ui/model/Sorter.js",
				"sap/ui/model/TreeAutoExpandMode.js",
				"sap/ui/model/TreeBindingCompatibilityAdapter.js",
				"sap/ui/model/Type.js",
				"sap/ui/model/analytics/ODataModelAdapter.js",
				"sap/ui/model/type/Boolean.js",
				"sap/ui/model/type/DateTime.js",
				"sap/ui/model/type/Float.js",
				"sap/ui/model/type/Integer.js",
				"sap/ui/model/type/String.js",
				"sap/ui/model/type/Time.js",
				"sap/ui/performance/trace/Interaction.js",
				"sap/ui/thirdparty/jquery.js",
				"sap/ui/unified/Menu.js",
				"sap/ui/unified/MenuItem.js",
				"sap/ui/unified/MenuRenderer.js",
				"sap/ui/unified/MenuTextFieldItem.js",
				"sap/ui/unified/library-preload.json",
				"sap/ui/unified/library.js"
			],
			"condRequired": [
				"sap/ui/core/util/Export.js",
				"sap/ui/core/util/ExportTypeCSV.js"
			],
			"included": [
				"sap/ui/table/AnalyticalColumn.js",
				"sap/ui/table/AnalyticalColumnMenu.js",
				"sap/ui/table/AnalyticalColumnMenuRenderer.js",
				"sap/ui/table/AnalyticalTable.js",
				"sap/ui/table/AnalyticalTableRenderer.js",
				"sap/ui/table/Column.js",
				"sap/ui/table/ColumnMenu.js",
				"sap/ui/table/ColumnMenuRenderer.js",
				"sap/ui/table/CreationRow.js",
				"sap/ui/table/CreationRowRenderer.js",
				"sap/ui/table/Row.js",
				"sap/ui/table/RowAction.js",
				"sap/ui/table/RowActionItem.js",
				"sap/ui/table/RowActionRenderer.js",
				"sap/ui/table/RowSettings.js",
				"sap/ui/table/Table.js",
				"sap/ui/table/TableAccExtension.js",
				"sap/ui/table/TableAccRenderExtension.js",
				"sap/ui/table/TableBindingUtils.js",
				"sap/ui/table/TableColumnUtils.js",
				"sap/ui/table/TableDragAndDropExtension.js",
				"sap/ui/table/TableExtension.js",
				"sap/ui/table/TableGrouping.js",
				"sap/ui/table/TableKeyboardDelegate2.js",
				"sap/ui/table/TableKeyboardExtension.js",
				"sap/ui/table/TableMenuUtils.js",
				"sap/ui/table/TablePersoController.js",
				"sap/ui/table/TablePointerExtension.js",
				"sap/ui/table/TableRenderer.js",
				"sap/ui/table/TableRendererUtils.js",
				"sap/ui/table/TableScrollExtension.js",
				"sap/ui/table/TableSyncExtension.js",
				"sap/ui/table/TableUtils.js",
				"sap/ui/table/TreeTable.js",
				"sap/ui/table/TreeTableRenderer.js",
				"sap/ui/table/library.js",
				"sap/ui/table/manifest.json",
				"sap/ui/table/plugins/BindingSelectionPlugin.js",
				"sap/ui/table/plugins/MultiSelectionPlugin.js",
				"sap/ui/table/plugins/SelectionModelPlugin.js",
				"sap/ui/table/plugins/SelectionPlugin.js"
			]
		},
		{
			"name": "library-preload.support.js",
			"module": "sap/ui/table/library-preload.support.js",
			"merged": true,
			"support": true,
			"required": [
				"sap/base/Log.js",
				"sap/ui/Device.js",
				"sap/ui/core/library.js",
				"sap/ui/support/library.js",
				"sap/ui/support/supportRules/RuleSet.js",
				"sap/ui/table/library.js",
				"sap/ui/thirdparty/jquery.js"
			],
			"included": [
				"sap/ui/table/library.support.js",
				"sap/ui/table/rules/TableHelper.support.js"
			]
		},
		{
			"name": "library-preload.support.js.map",
			"isDebug": true
		},
		{
			"name": "library.dependencies.json",
			"designtime": true
		},
		{
			"name": "library.dependencies.xml",
			"designtime": true
		},
		{
			"name": "library.js",
			"module": "sap/ui/table/library.js",
			"required": [
				"sap/ui/core/Core.js",
				"sap/ui/core/library.js",
				"sap/ui/model/TreeAutoExpandMode.js",
				"sap/ui/unified/library.js"
			]
		},
		{
			"name": "library.support.js",
			"module": "sap/ui/table/library.support.js",
			"support": true,
			"required": [
				"sap/base/Log.js",
				"sap/ui/Device.js",
				"sap/ui/core/library.js",
				"sap/ui/support/library.js",
				"sap/ui/support/supportRules/RuleSet.js",
				"sap/ui/table/library.js",
				"sap/ui/table/rules/TableHelper.support.js",
				"sap/ui/thirdparty/jquery.js"
			]
		},
		{
			"name": "library.templates.xml",
			"designtime": true
		},
		{
			"name": "manifest.json",
			"module": "sap/ui/table/manifest.json"
		},
		{
			"name": "messagebundle.properties",
			"module": "sap/ui/table/messagebundle.properties",
			"locale": "",
			"raw": "messagebundle.properties"
		},
		{
			"name": "messagebundle_ar.properties",
			"module": "sap/ui/table/messagebundle_ar.properties",
			"locale": "ar",
			"raw": "messagebundle.properties"
		},
		{
			"name": "messagebundle_bg.properties",
			"module": "sap/ui/table/messagebundle_bg.properties",
			"locale": "bg",
			"raw": "messagebundle.properties"
		},
		{
			"name": "messagebundle_ca.properties",
			"module": "sap/ui/table/messagebundle_ca.properties",
			"locale": "ca",
			"raw": "messagebundle.properties"
		},
		{
			"name": "messagebundle_cs.properties",
			"module": "sap/ui/table/messagebundle_cs.properties",
			"locale": "cs",
			"raw": "messagebundle.properties"
		},
		{
			"name": "messagebundle_da.properties",
			"module": "sap/ui/table/messagebundle_da.properties",
			"locale": "da",
			"raw": "messagebundle.properties"
		},
		{
			"name": "messagebundle_de.properties",
			"module": "sap/ui/table/messagebundle_de.properties",
			"locale": "de",
			"raw": "messagebundle.properties"
		},
		{
			"name": "messagebundle_el.properties",
			"module": "sap/ui/table/messagebundle_el.properties",
			"locale": "el",
			"raw": "messagebundle.properties"
		},
		{
			"name": "messagebundle_en.properties",
			"module": "sap/ui/table/messagebundle_en.properties",
			"locale": "en",
			"raw": "messagebundle.properties"
		},
		{
			"name": "messagebundle_en_US_sappsd.properties",
			"module": "sap/ui/table/messagebundle_en_US_sappsd.properties",
			"locale": "en_US_sappsd",
			"raw": "messagebundle.properties"
		},
		{
			"name": "messagebundle_en_US_saptrc.properties",
			"module": "sap/ui/table/messagebundle_en_US_saptrc.properties",
			"locale": "en_US_saptrc",
			"raw": "messagebundle.properties"
		},
		{
			"name": "messagebundle_es.properties",
			"module": "sap/ui/table/messagebundle_es.properties",
			"locale": "es",
			"raw": "messagebundle.properties"
		},
		{
			"name": "messagebundle_et.properties",
			"module": "sap/ui/table/messagebundle_et.properties",
			"locale": "et",
			"raw": "messagebundle.properties"
		},
		{
			"name": "messagebundle_fi.properties",
			"module": "sap/ui/table/messagebundle_fi.properties",
			"locale": "fi",
			"raw": "messagebundle.properties"
		},
		{
			"name": "messagebundle_fr.properties",
			"module": "sap/ui/table/messagebundle_fr.properties",
			"locale": "fr",
			"raw": "messagebundle.properties"
		},
		{
			"name": "messagebundle_hi.properties",
			"module": "sap/ui/table/messagebundle_hi.properties",
			"locale": "hi",
			"raw": "messagebundle.properties"
		},
		{
			"name": "messagebundle_hr.properties",
			"module": "sap/ui/table/messagebundle_hr.properties",
			"locale": "hr",
			"raw": "messagebundle.properties"
		},
		{
			"name": "messagebundle_hu.properties",
			"module": "sap/ui/table/messagebundle_hu.properties",
			"locale": "hu",
			"raw": "messagebundle.properties"
		},
		{
			"name": "messagebundle_it.properties",
			"module": "sap/ui/table/messagebundle_it.properties",
			"locale": "it",
			"raw": "messagebundle.properties"
		},
		{
			"name": "messagebundle_iw.properties",
			"module": "sap/ui/table/messagebundle_iw.properties",
			"locale": "iw",
			"raw": "messagebundle.properties"
		},
		{
			"name": "messagebundle_ja.properties",
			"module": "sap/ui/table/messagebundle_ja.properties",
			"locale": "ja",
			"raw": "messagebundle.properties"
		},
		{
			"name": "messagebundle_kk.properties",
			"module": "sap/ui/table/messagebundle_kk.properties",
			"locale": "kk",
			"raw": "messagebundle.properties"
		},
		{
			"name": "messagebundle_ko.properties",
			"module": "sap/ui/table/messagebundle_ko.properties",
			"locale": "ko",
			"raw": "messagebundle.properties"
		},
		{
			"name": "messagebundle_lt.properties",
			"module": "sap/ui/table/messagebundle_lt.properties",
			"locale": "lt",
			"raw": "messagebundle.properties"
		},
		{
			"name": "messagebundle_lv.properties",
			"module": "sap/ui/table/messagebundle_lv.properties",
			"locale": "lv",
			"raw": "messagebundle.properties"
		},
		{
			"name": "messagebundle_ms.properties",
			"module": "sap/ui/table/messagebundle_ms.properties",
			"locale": "ms",
			"raw": "messagebundle.properties"
		},
		{
			"name": "messagebundle_nl.properties",
			"module": "sap/ui/table/messagebundle_nl.properties",
			"locale": "nl",
			"raw": "messagebundle.properties"
		},
		{
			"name": "messagebundle_no.properties",
			"module": "sap/ui/table/messagebundle_no.properties",
			"locale": "no",
			"raw": "messagebundle.properties"
		},
		{
			"name": "messagebundle_pl.properties",
			"module": "sap/ui/table/messagebundle_pl.properties",
			"locale": "pl",
			"raw": "messagebundle.properties"
		},
		{
			"name": "messagebundle_pt.properties",
			"module": "sap/ui/table/messagebundle_pt.properties",
			"locale": "pt",
			"raw": "messagebundle.properties"
		},
		{
			"name": "messagebundle_ro.properties",
			"module": "sap/ui/table/messagebundle_ro.properties",
			"locale": "ro",
			"raw": "messagebundle.properties"
		},
		{
			"name": "messagebundle_ru.properties",
			"module": "sap/ui/table/messagebundle_ru.properties",
			"locale": "ru",
			"raw": "messagebundle.properties"
		},
		{
			"name": "messagebundle_sh.properties",
			"module": "sap/ui/table/messagebundle_sh.properties",
			"locale": "sh",
			"raw": "messagebundle.properties"
		},
		{
			"name": "messagebundle_sk.properties",
			"module": "sap/ui/table/messagebundle_sk.properties",
			"locale": "sk",
			"raw": "messagebundle.properties"
		},
		{
			"name": "messagebundle_sl.properties",
			"module": "sap/ui/table/messagebundle_sl.properties",
			"locale": "sl",
			"raw": "messagebundle.properties"
		},
		{
			"name": "messagebundle_sv.properties",
			"module": "sap/ui/table/messagebundle_sv.properties",
			"locale": "sv",
			"raw": "messagebundle.properties"
		},
		{
			"name": "messagebundle_th.properties",
			"module": "sap/ui/table/messagebundle_th.properties",
			"locale": "th",
			"raw": "messagebundle.properties"
		},
		{
			"name": "messagebundle_tr.properties",
			"module": "sap/ui/table/messagebundle_tr.properties",
			"locale": "tr",
			"raw": "messagebundle.properties"
		},
		{
			"name": "messagebundle_uk.properties",
			"module": "sap/ui/table/messagebundle_uk.properties",
			"locale": "uk",
			"raw": "messagebundle.properties"
		},
		{
			"name": "messagebundle_vi.properties",
			"module": "sap/ui/table/messagebundle_vi.properties",
			"locale": "vi",
			"raw": "messagebundle.properties"
		},
		{
			"name": "messagebundle_zh_CN.properties",
			"module": "sap/ui/table/messagebundle_zh_CN.properties",
			"locale": "zh_CN",
			"raw": "messagebundle.properties"
		},
		{
			"name": "messagebundle_zh_TW.properties",
			"module": "sap/ui/table/messagebundle_zh_TW.properties",
			"locale": "zh_TW",
			"raw": "messagebundle.properties"
		},
		{
			"name": "plugins/BindingSelectionPlugin-dbg.js",
			"module": "sap/ui/table/plugins/BindingSelectionPlugin.js",
			"isDebug": true,
			"required": [
				"sap/ui/table/library.js",
				"sap/ui/table/plugins/SelectionPlugin.js"
			]
		},
		{
			"name": "plugins/BindingSelectionPlugin.js",
			"module": "sap/ui/table/plugins/BindingSelectionPlugin.js",
			"required": [
				"sap/ui/table/library.js",
				"sap/ui/table/plugins/SelectionPlugin.js"
			]
		},
		{
			"name": "plugins/MultiSelectionPlugin-dbg.js",
			"module": "sap/ui/table/plugins/MultiSelectionPlugin.js",
			"isDebug": true,
			"required": [
				"sap/ui/core/Icon.js",
				"sap/ui/core/IconPool.js",
				"sap/ui/table/TableUtils.js",
				"sap/ui/table/library.js",
				"sap/ui/table/plugins/BindingSelectionPlugin.js",
				"sap/ui/table/plugins/SelectionModelPlugin.js",
				"sap/ui/table/plugins/SelectionPlugin.js"
			]
		},
		{
			"name": "plugins/MultiSelectionPlugin.js",
			"module": "sap/ui/table/plugins/MultiSelectionPlugin.js",
			"required": [
				"sap/ui/core/Icon.js",
				"sap/ui/core/IconPool.js",
				"sap/ui/table/TableUtils.js",
				"sap/ui/table/library.js",
				"sap/ui/table/plugins/BindingSelectionPlugin.js",
				"sap/ui/table/plugins/SelectionModelPlugin.js",
				"sap/ui/table/plugins/SelectionPlugin.js"
			]
		},
		{
			"name": "plugins/SelectionModelPlugin-dbg.js",
			"module": "sap/ui/table/plugins/SelectionModelPlugin.js",
			"isDebug": true,
			"required": [
				"sap/ui/model/SelectionModel.js",
				"sap/ui/table/library.js",
				"sap/ui/table/plugins/SelectionPlugin.js"
			]
		},
		{
			"name": "plugins/SelectionModelPlugin.js",
			"module": "sap/ui/table/plugins/SelectionModelPlugin.js",
			"required": [
				"sap/ui/model/SelectionModel.js",
				"sap/ui/table/library.js",
				"sap/ui/table/plugins/SelectionPlugin.js"
			]
		},
		{
			"name": "plugins/SelectionPlugin-dbg.js",
			"module": "sap/ui/table/plugins/SelectionPlugin.js",
			"isDebug": true,
			"required": [
				"sap/ui/core/Element.js",
				"sap/ui/table/library.js"
			]
		},
		{
			"name": "plugins/SelectionPlugin.control",
			"designtime": true
		},
		{
			"name": "plugins/SelectionPlugin.js",
			"module": "sap/ui/table/plugins/SelectionPlugin.js",
			"required": [
				"sap/ui/core/Element.js",
				"sap/ui/table/library.js"
			]
		},
		{
			"name": "resources.json"
		},
		{
			"name": "rules/TableHelper.support.js",
			"module": "sap/ui/table/rules/TableHelper.support.js",
			"support": true,
			"required": [
				"sap/base/Log.js",
				"sap/ui/support/library.js"
			]
		},
		{
			"name": "themes/base/.theming",
			"theme": "base"
		},
		{
			"name": "themes/base/AnalyticalTable.less",
			"designtime": true,
			"theme": "base"
		},
		{
			"name": "themes/base/Cell.less",
			"designtime": true,
			"theme": "base"
		},
		{
			"name": "themes/base/CreationRow.less",
			"designtime": true,
			"theme": "base"
		},
		{
			"name": "themes/base/DragDrop.less",
			"designtime": true,
			"theme": "base"
		},
		{
			"name": "themes/base/Grouping.less",
			"designtime": true,
			"theme": "base"
		},
		{
			"name": "themes/base/Row.less",
			"designtime": true,
			"theme": "base"
		},
		{
			"name": "themes/base/RowAction.less",
			"designtime": true,
			"theme": "base"
		},
		{
			"name": "themes/base/RowHighlight.less",
			"designtime": true,
			"theme": "base"
		},
		{
			"name": "themes/base/RowSelection.less",
			"designtime": true,
			"theme": "base"
		},
		{
			"name": "themes/base/Scrolling.less",
			"designtime": true,
			"theme": "base"
		},
		{
			"name": "themes/base/Table.less",
			"designtime": true,
			"theme": "base"
		},
		{
			"name": "themes/base/library-RTL-dbg.css",
			"isDebug": true,
			"theme": "base"
		},
		{
			"name": "themes/base/library-RTL.css",
			"theme": "base"
		},
		{
			"name": "themes/base/library-dbg.css",
			"isDebug": true,
			"theme": "base"
		},
		{
			"name": "themes/base/library-parameters.json",
			"theme": "base"
		},
		{
			"name": "themes/base/library.css",
			"theme": "base"
		},
		{
			"name": "themes/base/library.less",
			"designtime": true,
			"theme": "base"
		},
		{
			"name": "themes/base/library.source.less",
			"designtime": true,
			"theme": "base"
		},
		{
			"name": "themes/sap_hcb/.theming",
			"theme": "sap_hcb"
		},
		{
			"name": "themes/sap_hcb/DragDrop.less",
			"designtime": true,
			"theme": "sap_hcb"
		},
		{
			"name": "themes/sap_hcb/Grouping.less",
			"designtime": true,
			"theme": "sap_hcb"
		},
		{
			"name": "themes/sap_hcb/Row.less",
			"designtime": true,
			"theme": "sap_hcb"
		},
		{
			"name": "themes/sap_hcb/RowHighlight.less",
			"designtime": true,
			"theme": "sap_hcb"
		},
		{
			"name": "themes/sap_hcb/RowSelection.less",
			"designtime": true,
			"theme": "sap_hcb"
		},
		{
			"name": "themes/sap_hcb/Scrolling.less",
			"designtime": true,
			"theme": "sap_hcb"
		},
		{
			"name": "themes/sap_hcb/Table.less",
			"designtime": true,
			"theme": "sap_hcb"
		},
		{
			"name": "themes/sap_hcb/library-RTL-dbg.css",
			"isDebug": true,
			"theme": "sap_hcb"
		},
		{
			"name": "themes/sap_hcb/library-RTL.css",
			"theme": "sap_hcb"
		},
		{
			"name": "themes/sap_hcb/library-dbg.css",
			"isDebug": true,
			"theme": "sap_hcb"
		},
		{
			"name": "themes/sap_hcb/library-parameters.json",
			"theme": "sap_hcb"
		},
		{
			"name": "themes/sap_hcb/library.css",
			"theme": "sap_hcb"
		},
		{
			"name": "themes/sap_hcb/library.less",
			"designtime": true,
			"theme": "sap_hcb"
		},
		{
			"name": "themes/sap_hcb/library.source.less",
			"designtime": true,
			"theme": "sap_hcb"
		}
	]
}